distances=array([1.57266669, 1.58411717, 1.57838802, 1.56980212, 1.5984375 ,
       1.59271091, 1.59271864, 1.58986698, 1.58125259, 1.58411717,
       1.57552344, 1.57838802, 1.58700243, 1.57266669, 1.57552344,
       1.58411717, 1.55547139, 1.57552344, 1.57552083, 1.56985701,
       1.57838802, 1.57552083, 1.58697917, 1.58697917, 1.58125   ,
       1.58698175, 1.58697917, 1.58126038, 1.58413789, 1.57554427,
       1.58413789, 1.5784504 , 1.5955832 , 1.6041769 , 1.61277059,
       1.58988504, 1.60420759, 1.6185124 , 1.58415602, 1.5984606 ,
       1.61849972, 1.58707224, 1.5956372 , 1.59559606, 1.56705538,
       1.58702053, 1.6070721 , 1.57558594])
avg_distance=1.5858660852763904mm
standard_deviation=0.012968461922701317mm
avg_error=0.0018718362455117544
relative_error=0.0011803242801459645
